module gitlab.com/chedched/colly/v2

go 1.12

require (
	github.com/PuerkitoBio/goquery v1.5.1
	github.com/andybalholm/cascadia v1.2.0 // indirect
	github.com/antchfx/htmlquery v1.2.3
	github.com/antchfx/xmlquery v1.3.4
	github.com/gobwas/glob v0.2.3
	github.com/golang/protobuf v1.4.2 // indirect
	github.com/jawher/mow.cli v1.1.0
	github.com/kennygrant/sanitize v1.2.4
	github.com/nlnwa/whatwg-url v0.1.0
	github.com/saintfish/chardet v0.0.0-20120816061221-3af4cd4741ca
	github.com/temoto/robotstxt v1.1.1
	golang.org/x/net v0.0.0-20201020065357-d65d470038a5
	google.golang.org/appengine v1.6.6
	google.golang.org/protobuf v1.24.0 // indirect
)
